pose: upwards, coordinates in cm (x, y): [16.00978218444561, 12.772687434509018] 
pose: correct, coordinates in cm (x, y): [12.085652966185949, 9.631655223449576] 
pose: side, coordinates in cm (x, y): [12.895545810287508, 11.828489328188118] 
pose: side, coordinates in cm (x, y): [9.011242508655478, 5.723142914880284] 
pose: upwards, coordinates in cm (x, y): [8.947123820095367, 12.796773716114444] 
pose: upwards, coordinates in cm (x, y): [15.229622235603742, 10.390680973389296] 
pose: side, coordinates in cm (x, y): [16.029377859993588, 5.615666224943355] 
